Tidyquant套件介紹 :: Hello Friend, I'm Yestin!
…
tq_get()函數可下載的資料來源相當多，除了股價資料外，也有財務比率指標(Morningstar)、股利股息資料(Yahoo Finance)及總經資料(FRED)等，只要修改函數內的get參數即可取得。詳細內容可參考原作者的說明文件：Core Functions in tidyquant。

我們在Yahoo Finance要下載的股票代碼為：鴻海(2317.TW)、台積電(2330.TW)及中華電信(2412.TW)及臺灣加權指數(^TWII)，程式碼寫法如下:

# 載入套件
library(tidyquant)

# 下載資料
stockData <- c("^TWII", "2317.TW", "2330.TW", "2412.TW") %>%
  tq_get(get = "stock.price", from = "2017-06-01", to = "2018-05-31")

# 觀看資料
stockData

## # A tibble: 988 x 8
##    symbol       date     open     high      low    close  volume adjusted
##     <chr>     <date>    <dbl>    <dbl>    <dbl>    <dbl>   <dbl>    <dbl>
##  1  ^TWII 2017-06-01 10064.44 10100.37 10059.93 10087.42 1923600 10087.42
##  2  ^TWII 2017-06-02 10117.76 10152.53 10117.06 10152.53 2037600 10152.53
##  3  ^TWII 2017-06-03       NA       NA       NA       NA      NA       NA
##  4  ^TWII 2017-06-05 10164.89 10226.84 10164.89 10226.84 2141900 10226.84
##  5  ^TWII 2017-06-06 10213.17 10221.64 10190.39 10206.18 2016200 10206.18
##  6  ^TWII 2017-06-07 10216.14 10242.39 10183.15 10209.99 2172700 10209.99
##  7  ^TWII 2017-06-08 10215.93 10235.70 10211.00 10225.78 1703500 10225.78
##  8  ^TWII 2017-06-09 10238.55 10268.37 10198.80 10199.65 2139100 10199.65
##  9  ^TWII 2017-06-12 10137.04 10158.64 10109.96 10109.96 1746300 10109.96
## 10  ^TWII 2017-06-13 10109.70 10146.67 10109.70 10128.15 1586300 10128.15
## # ... with 978 more rows
…
# 整理資料欄位(依序為股票代碼、名稱、日期、開盤價、最高價、最低價、收盤價、成交量及成交金額)
colnames(stockData) <- c("code", "name", "date", "open", "high", "low", "close", "volume", "tradeValue")

# 將股票代碼及名稱空白格刪除
stockData <- stockData %>%
  mutate(code = gsub("\\s+","", code),
         name = gsub("\\s+","", name))

# 觀看資料
stockData

## # A tibble: 996 x 9
##     code     name     date     open     high      low    close  volume
##    <chr>    <chr>    <int>    <dbl>    <dbl>    <dbl>    <dbl>   <int>
##  1  2317     鴻海 20170601    99.57   100.53    99.09   100.53   27441
##  2  2330   台積電 20170601   198.39   200.32   197.90   200.32   29623
##  3  2412   中華電 20170601   103.13   103.60   102.65   103.13   10351
##  4 Y9999 加權指數 20170601 10064.44 10100.37 10059.93 10087.42 3935374
##  5  2317     鴻海 20170602   101.01   101.49   100.53   101.49   38194
##  6  2330   台積電 20170602   201.77   202.26   200.81   202.26   23265
##  7  2412   中華電 20170602   103.13   103.60   102.17   103.13    7341
##  8 Y9999 加權指數 20170602 10117.76 10152.53 10117.06 10152.53 4262071
##  9  2317     鴻海 20170603   101.01   101.49   100.53   101.01    9968
## 10  2330   台積電 20170603   202.26   202.26   201.29   202.26    1535
## # ... with 986 more rows, and 1 more variables: tradeValue <int>

由於TEJ資料庫我們採用特殊轉檔功能輸出，因此日期是以8碼數字格式儲存。為了讓tidyquant套件能夠運作，需將日期欄位由數字格式轉為日期格式。

# 將8碼數字日期格式轉為日期格式
DateConvert <- function(date){
  date <- as.Date(as.character(date), "%Y%m%d")
  return(date)
}

stockData <- stockData %>% mutate(date = DateConvert(date))

# 觀看資料
stockData

## # A tibble: 996 x 9
##     code     name       date     open     high      low    close  volume
##    <chr>    <chr>     <date>    <dbl>    <dbl>    <dbl>    <dbl>   <int>
##  1  2317     鴻海 2017-06-01    99.57   100.53    99.09   100.53   27441
##  2  2330   台積電 2017-06-01   198.39   200.32   197.90   200.32   29623
##  3  2412   中華電 2017-06-01   103.13   103.60   102.65   103.13   10351
##  4 Y9999 加權指數 2017-06-01 10064.44 10100.37 10059.93 10087.42 3935374
##  5  2317     鴻海 2017-06-02   101.01   101.49   100.53   101.49   38194
##  6  2330   台積電 2017-06-02   201.77   202.26   200.81   202.26   23265
##  7  2412   中華電 2017-06-02   103.13   103.60   102.17   103.13    7341
##  8 Y9999 加權指數 2017-06-02 10117.76 10152.53 10117.06 10152.53 4262071
##  9  2317     鴻海 2017-06-03   101.01   101.49   100.53   101.01    9968
## 10  2330   台積電 2017-06-03   202.26   202.26   201.29   202.26    1535
## # ... with 986 more rows, and 1 more variables: tradeValue <int>
…
# 觀看資料
stockData %>% 
  select(code, date, close, ma5) %>% 
  arrange(code, date) %>%
  na.omit()

## # A tibble: 980 x 4
## # Groups:   code [4]
##     code       date  close     ma5
##    <chr>     <date>  <dbl>   <dbl>
##  1  2317 2017-06-06 101.01 101.106
##  2  2317 2017-06-07 101.01 101.202
##  3  2317 2017-06-08 101.01 101.106
##  4  2317 2017-06-09 101.01 101.106
##  5  2317 2017-06-12  98.13 100.434
##  6  2317 2017-06-13  98.13  99.858
##  7  2317 2017-06-14  98.13  99.282
##  8  2317 2017-06-15  98.61  98.802
##  9  2317 2017-06-16 101.01  98.802
## 10  2317 2017-06-19 105.34 100.244
## # ... with 970 more rows
…
  # 計算20日簡單移動平均線參數
  tq_mutate(select = c(close),
            mutate_fun = SMA,
            n = 20) %>%
  rename(ma20 = SMA)

# 觀看資料
stockData %>% 
  select(code, date, close, ma10:ma20) %>% 
  arrange(code, date) %>%
  na.omit()

## # A tibble: 920 x 5
## # Groups:   code [4]
##     code       date  close    ma10     ma20
##    <chr>     <date>  <dbl>   <dbl>    <dbl>
##  1  2317 2017-06-27 116.89 107.074 103.7780
##  2  2317 2017-06-28 113.52 108.613 104.4275
##  3  2317 2017-06-29 114.48 110.200 105.0770
##  4  2317 2017-06-30 112.56 111.355 105.6545
##  5  2317 2017-07-03 112.08 112.029 106.1840
##  6  2317 2017-07-04 108.71 111.885 106.5690
##  7  2317 2017-07-05 111.59 112.173 107.0980
##  8  2317 2017-07-06 111.11 112.461 107.6030
##  9  2317 2017-07-07 110.15 112.653 108.0600
## 10  2317 2017-07-10 111.11 112.220 108.7090
## # ... with 910 more rows
…
  # 計算隨機指標
  tq_mutate(select = c(high, low, close),   
            mutate_fun = stoch, 
            nFastK = 14, 
            nFastD = 3, 
            nSlowD = 3)

# 觀看資料
stockData %>% 
  select(code, date, fastK:stoch) %>% 
  arrange(code, date) %>%
  na.omit()

## # A tibble: 928 x 5
## # Groups:   code [4]
##     code       date     fastK     fastD     stoch
##    <chr>     <date>     <dbl>     <dbl>     <dbl>
##  1  2317 2017-06-23 0.8218263 0.8337045 0.8790184
##  2  2317 2017-06-26 0.9496104 0.8644210 0.8597810
##  3  2317 2017-06-27 0.9536008 0.9083458 0.8688238
##  4  2317 2017-06-28 0.7907202 0.8979771 0.8902480
##  5  2317 2017-06-29 0.8371194 0.8604801 0.8889343
##  6  2317 2017-06-30 0.7443209 0.7907202 0.8497258
##  7  2317 2017-07-03 0.7211213 0.7675205 0.8062403
##  8  2317 2017-07-04 0.5365112 0.6673178 0.7418528
##  9  2317 2017-07-05 0.6746362 0.6440895 0.6929760
## 10  2317 2017-07-06 0.5755668 0.5955714 0.6356596
## # ... with 918 more rows
…
  # 計算MACD指標
  tq_mutate(select = close,                
            mutate_fun = MACD, 
            nFast = 12, 
            nSlow = 26, 
            nSig  = 9)               

# 觀看資料
stockData %>% 
  select(code, date, macd:signal) %>% 
  arrange(code, date) %>%
  na.omit()

## # A tibble: 864 x 4
## # Groups:   code [4]
##     code       date     macd   signal
##    <chr>     <date>    <dbl>    <dbl>
##  1  2317 2017-07-17 3.399607 3.703507
##  2  2317 2017-07-18 3.414634 3.645732
##  3  2317 2017-07-19 3.385078 3.593601
##  4  2317 2017-07-20 3.286600 3.532201
##  5  2317 2017-07-21 3.066426 3.439046
##  6  2317 2017-07-24 2.928384 3.336914
##  7  2317 2017-07-25 2.855695 3.240670
##  8  2317 2017-07-26 2.661369 3.124810
##  9  2317 2017-07-27 2.617056 3.023259
## 10  2317 2017-07-28 2.551553 2.928918
## # ... with 854 more rows
…
# 整理各資產報酬率並且併入各交易日對應的市場報酬率
stockRet <- stockRet %>%
  select(code:date, ret) %>%
  filter(code != "Y9999") %>%
  left_join(mktRet, by = c("date" = "date"))

整理完後的資料，每個資產在每個交易日都有日報酬率和當日對應的市場報酬率，如下所示：

stockRet

## # A tibble: 744 x 5
##     code  name       date          ret        mktRet
##    <chr> <chr>     <date>        <dbl>         <dbl>
##  1  2317  鴻海 2017-06-02  0.009549388  0.0064545741
##  2  2317  鴻海 2017-06-03 -0.004729530  0.0005535566
##  3  2317  鴻海 2017-06-05  0.004752005  0.0067620581
##  4  2317  鴻海 2017-06-06 -0.004729530 -0.0020201744
##  5  2317  鴻海 2017-06-07  0.000000000  0.0003733032
##  6  2317  鴻海 2017-06-08  0.000000000  0.0015465245
##  7  2317  鴻海 2017-06-09  0.000000000 -0.0025553063
##  8  2317  鴻海 2017-06-12 -0.028512029 -0.0087934390
##  9  2317  鴻海 2017-06-13  0.000000000  0.0017992158
## 10  2317  鴻海 2017-06-14  0.000000000 -0.0054985363
## # ... with 734 more rows
…
套件函數之參數設定。

# 轉換成月頻資料
stockMonthRet <- stockData %>%
  group_by(code) %>%
  tq_transmute(select = close,
               mutate_fun = periodReturn,
               col_rename = "monthRet",
               period = "monthly")

# 觀看資料
stockMonthRet

## # A tibble: 48 x 3
## # Groups:   code [4]
##     code       date     monthRet
##    <chr>     <date>        <dbl>
##  1  2317 2017-06-30  0.119665771
##  2  2317 2017-07-31  0.043887704
##  3  2317 2017-08-31  0.000000000
##  4  2317 2017-09-30 -0.089361702
##  5  2317 2017-10-31  0.046728972
##  6  2317 2017-11-30 -0.107142857
##  7  2317 2017-12-29 -0.048000000
##  8  2317 2018-01-31 -0.031512605
##  9  2317 2018-02-27 -0.044468547
## 10  2317 2018-03-31  0.004540295
## # ... with 38 more rows
…
