R的平行運算 :: Hello Friend, I'm Yestin!
…
for(ix in 1:1000){

  rowData <- tibble(num1 = ix, num2 = ix^power) 
  output <- output %>% bind_rows(rowData)
  
}

forTime <- proc.time() - ptm  # 結束計時器 

執行完後，output會是：

output

## # A tibble: 1,000 x 2
##     num1  num2
##    <int> <dbl>
##  1     1     1
##  2     2     4
##  3     3     9
##  4     4    16
##  5     5    25
##  6     6    36
##  7     7    49
##  8     8    64
##  9     9    81
## 10    10   100
## # ... with 990 more rows
…
