以梯度下降法解線性迴歸係數 :: Hello Friend, I'm Yesting!
…
本次資料集使用ggplot2套件內提供的鑽石(diamonds)資料集，裡面共包含53,940筆及10個特徵資料。分析的問題為給定在切割(cut)為理想型(Ideal)及淨度(clarity)為內部完美無瑕(IF)的鑽石資料集下，以克拉做為特徵資料(即解釋變數)，建立線性迴歸模型，預測鑽石價格(即被解釋變數)。有關鑽石的知識，可參考此網站。

預測的迴歸式如下，下標i代表樣本：

\[Price_i=\hat{\alpha} + \hat{\beta_1} Carat_i + \varepsilon_i\]

資料整理程式碼如下所示：

data <- diamonds %>% 
  filter((cut=="Ideal") & (clarity=="IF")) %>%
  select(price, carat)
data

## # A tibble: 1,212 x 2
##    price carat
##    <int> <dbl>
##  1  2783  0.52
##  2  2789  0.55
##  3  2790  0.64
##  4  2800  0.61
##  5  2802  0.53
##  6  2868  0.62
##  7  2869  0.62
##  8  2925  0.71
##  9  2952  0.74
## 10  2960  0.64
## # ... with 1,202 more rows
…
